<?xml version="1.0" encoding="UTF-8" standalone="no"?>
<svg
   xmlns:dc="http://purl.org/dc/elements/1.1/"
   xmlns:cc="http://creativecommons.org/ns#"
   xmlns:rdf="http://www.w3.org/1999/02/22-rdf-syntax-ns#"
   xmlns:svg="http://www.w3.org/2000/svg"
   xmlns="http://www.w3.org/2000/svg"
   xmlns:sodipodi="http://sodipodi.sourceforge.net/DTD/sodipodi-0.dtd"
   xmlns:inkscape="http://www.inkscape.org/namespaces/inkscape"
   width="24"
   height="24"
   viewBox="0 0 24 24"
   id="svg3128"
   version="1.1"
   inkscape:version="0.48.5 r10040"
   sodipodi:docname="jinteki.svg">
  <metadata
     id="metadata3138">
    <rdf:RDF>
      <cc:Work
         rdf:about="">
        <dc:format>image/svg+xml</dc:format>
        <dc:type
           rdf:resource="http://purl.org/dc/dcmitype/StillImage" />
        <dc:title />
      </cc:Work>
    </rdf:RDF>
  </metadata>
  <defs
     id="defs3136" />
  <sodipodi:namedview
     pagecolor="#ffffff"
     bordercolor="#666666"
     borderopacity="1"
     objecttolerance="10"
     gridtolerance="10"
     guidetolerance="10"
     inkscape:pageopacity="0"
     inkscape:pageshadow="2"
     inkscape:window-width="1920"
     inkscape:window-height="1080"
     id="namedview3134"
     showgrid="true"
     inkscape:showpageshadow="false"
     inkscape:zoom="26.428929"
     inkscape:cx="13.051461"
     inkscape:cy="11.441969"
     inkscape:window-x="0"
     inkscape:window-y="0"
     inkscape:window-maximized="0"
     inkscape:current-layer="svg3128"
     inkscape:snap-grids="false"
     inkscape:snap-to-guides="false">
    <inkscape:grid
       empspacing="4"
       visible="true"
       enabled="true"
       snapvisiblegridlinesonly="true"
       type="xygrid"
       id="grid3140" />
  </sodipodi:namedview>
  <path
     style="font-size:medium;font-style:normal;font-variant:normal;font-weight:normal;font-stretch:normal;text-indent:0;text-align:start;text-decoration:none;line-height:normal;letter-spacing:normal;word-spacing:normal;text-transform:none;direction:ltr;block-progression:tb;writing-mode:lr-tb;text-anchor:start;baseline-shift:baseline;color:#000000;fill:#000000;fill-opacity:1;stroke:none;stroke-width:2;marker:none;visibility:visible;display:inline;overflow:visible;enable-background:accumulate;font-family:Sans;-inkscape-font-specification:Sans"
     d="M 12,2 C 6.4889971,2 2,6.4889971 2,12 2,17.511003 6.4889971,22 12,22 17.511003,22 22,17.511003 22,12 22,6.4889971 17.511003,2 12,2 z m 0,2 c 4.430123,0 8,3.5698774 8,8 0,1.897297 -0.653297,3.631118 -1.75,5 l -5.90625,0 0.6875,-1.4375 0.3125,-0.4375 0.875,-1.21875 2.09375,-0.0625 c 0.270291,0.303835 0.655098,0.5 1.09375,0.5 0.814982,0 1.46875,-0.653768 1.46875,-1.46875 0,-0.814982 -0.653768,-1.46875 -1.46875,-1.46875 -0.407491,0 -0.764209,0.170459 -1.03125,0.4375 L 14.4375,11.90625 13.59375,10.25 13.8125,10 c 0.328235,0.162338 0.702771,0.25 1.09375,0.25 1.358304,0 2.46875,-1.0791965 2.46875,-2.4375 0,-1.3583036 -1.110446,-2.46875 -2.46875,-2.46875 -1.358303,0 -2.46875,1.1104464 -2.46875,2.46875 0,0.2166525 0.04115,0.424858 0.09375,0.625 l -0.5,0.46875 -0.5625,-0.3125 c 0.07137,-0.2360428 0.125,-0.4906685 0.125,-0.75 0,-1.4209945 -1.172755,-2.5625 -2.59375,-2.5625 -1.4209946,0 -2.5625,1.1415055 -2.5625,2.5625 0,1.4209946 1.1415054,2.5625 2.5625,2.5625 0.4044369,0 0.784508,-0.08373 1.125,-0.25 l 0.21875,0.09375 1.0625,0.625 1.125,1.90625 -0.3125,0.46875 -2.75,-1.40625 c -0.1446558,-0.706915 -0.7815709,-1.25 -1.53125,-1.25 -0.8567761,0 -1.53125,0.705724 -1.53125,1.5625 0,0.856776 0.6744739,1.5625 1.53125,1.5625 0.2043686,0 0.4150662,-0.05319 0.59375,-0.125 L 11.09375,14.9375 10.15625,17 5.75,17 C 4.653297,15.631118 4,13.897297 4,12 4,7.5698774 7.5698774,4 12,4 z"
     id="path3187"
     inkscape:connector-curvature="0"
     sodipodi:nodetypes="sssssssccccccsssccccsssscccssssccccccsssccccss" />
</svg>
