<?xml version="1.0" encoding="UTF-8" standalone="no"?>
<!-- Created with Inkscape (http://www.inkscape.org/) -->

<svg
   xmlns:dc="http://purl.org/dc/elements/1.1/"
   xmlns:cc="http://creativecommons.org/ns#"
   xmlns:rdf="http://www.w3.org/1999/02/22-rdf-syntax-ns#"
   xmlns:svg="http://www.w3.org/2000/svg"
   xmlns="http://www.w3.org/2000/svg"
   version="1.1"
   width="13"
   height="13"
   id="svg2">
  <defs
     id="defs4" />
  <metadata
     id="metadata7">
    <rdf:RDF>
      <cc:Work
         rdf:about="">
        <dc:format>image/svg+xml</dc:format>
        <dc:type
           rdf:resource="http://purl.org/dc/dcmitype/StillImage" />
        <dc:title></dc:title>
      </cc:Work>
    </rdf:RDF>
  </metadata>
  <path
     d="M 1,2 1,10 3,10 3,9 2,9 2,3 8,3 8,9 6,9 6,10 9,10 9,2 z"
     id="path3878"
     style="fill:#000000;fill-opacity:0.5372549;stroke:none" />
  <path
     d="m 7,5 0,1 -2,0 0,6 6,0 0,-6 -1,0 0,-1 2,0 0,8 -8,0 0,-8 z"
     id="path3880"
     style="fill:#000000;fill-opacity:0.5372549;stroke:none" />
</svg>
