<?xml version="1.0" encoding="UTF-8" standalone="no"?>
<!-- Created with Inkscape (http://www.inkscape.org/) -->

<svg
   xmlns:dc="http://purl.org/dc/elements/1.1/"
   xmlns:cc="http://creativecommons.org/ns#"
   xmlns:rdf="http://www.w3.org/1999/02/22-rdf-syntax-ns#"
   xmlns:svg="http://www.w3.org/2000/svg"
   xmlns="http://www.w3.org/2000/svg"
   version="1.1"
   width="14"
   height="13"
   id="svg2">
  <defs
     id="defs4" />
  <metadata
     id="metadata7">
    <rdf:RDF>
      <cc:Work
         rdf:about="">
        <dc:format>image/svg+xml</dc:format>
        <dc:type
           rdf:resource="http://purl.org/dc/dcmitype/StillImage" />
        <dc:title></dc:title>
      </cc:Work>
    </rdf:RDF>
  </metadata>
  <path
     d="M 7,1 C 3.6862915,1 1,3.6862915 1,7 c 0,3.313708 2.6862915,6 6,6 3.313709,0 6,-2.686292 6,-6 C 13,3.6862915 10.313709,1 7,1 z m 0,1.5 c 2.4852814,0 4.5,2.0147186 4.5,4.5 0,2.4852814 -2.0147186,4.5 -4.5,4.5 C 4.5147186,11.5 2.5,9.4852814 2.5,7 2.5,4.5147186 4.5147186,2.5 7,2.5 z M 6.5,3 l 0,3.8125 -1.84375,1.84375 0.6875,0.6875 2,-2 L 7.5,7.21875 7.5,7 l 0,-4 -1,0 z"
     id="path3960"
     style="fill:#000000;fill-opacity:0.5372549;stroke:none" />
</svg>
